rtl/transcript
# //  Questa Sim-64
# //  Version 2021.1 win64 Jan 19 2021
# //
# //  Copyright 1991-2021 Mentor Graphics Corporation
# //  All Rights Reserved.
# //
# //  QuestaSim and its associated documentation contain trade
# //  secrets and commercial or financial information that are the property of
# //  Mentor Graphics Corporation and are privileged, confidential,
# //  and exempt from disclosure under the Freedom of Information Act,
# //  5 U.S.C. Section 552. Furthermore, this information
# //  is prohibited from disclosure under the Trade Secrets Act,
# //  18 U.S.C. Section 1905.
# //
# vsim -voptargs="+acc" ahbslave_tb 
# Start time: 16:51:51 on Sep 22,2024
# ** Note: (vsim-3812) Design is being optimized...
# ** Error: ahb_slave.v(162): (vopt-2123) Missing argument for format specification '%d'.
# ** Error: ahb_slave.v(162): (vopt-2123) Missing argument for format specification '%d'.
# ** Error: ahb_slave.v(174): (vopt-2123) Missing argument for format specification '%d'.
# ** Error: ahb_slave.v(174): (vopt-2123) Missing argument for format specification '%d'.
# Optimization failed
# ** Error: (vopt-2064) Compiler back-end code generation process terminated with code 12.
# ** Note: (vsim-12126) Error and warning message counts have been restored: Errors=5, Warnings=0.
# Error loading design
# End time: 16:51:58 on Sep 22,2024, Elapsed time: 0:00:07
# Errors: 5, Warnings: 0
vlog ahb_slave.v
# QuestaSim-64 vlog 2021.1 Compiler 2021.01 Jan 19 2021
# Start time: 16:52:58 on Sep 22,2024
# vlog -reportprogress 300 ahb_slave.v 
# -- Compiling module ahb_slave
# ** Warning: ahb_slave.v(162): (vlog-2182) 'burst_counter_reg' might be read before written in always_comb or always @* block.
# 
# Top level modules:
# 	ahb_slave
# End time: 16:52:58 on Sep 22,2024, Elapsed time: 0:00:00
# Errors: 0, Warnings: 1
ahbs_tb.sv
# couldn't execute ".\ahbs_tb.sv": no such file or directory
vlog ahbs_tb.sv
# QuestaSim-64 vlog 2021.1 Compiler 2021.01 Jan 19 2021
# Start time: 16:53:14 on Sep 22,2024
# vlog -reportprogress 300 ahbs_tb.sv 
# -- Compiling module ahbslave_tb
# 
# Top level modules:
# 	ahbslave_tb
# End time: 16:53:14 on Sep 22,2024, Elapsed time: 0:00:00
# Errors: 0, Warnings: 0
vsim -voptargs=+acc ahbs_tb.sv
# OpenFile ahbs_tb.sv
vsim -voptargs=+acc ahbs_tb.sv
# OpenFile ahbs_tb.sv
OpenFile ahbslave_tb
# Error opening F:/ic_design/repos/AHB_LITE/rtl/ahbslave_tb
# Path name 'F:/ic_design/repos/AHB_LITE/rtl/ahbslave_tb' doesn't exist.
vsim -voptargs=+acc ahbslave_tb
# vsim -voptargs="+acc" ahbslave_tb 
# Start time: 16:54:13 on Sep 22,2024
# ** Note: (vsim-3812) Design is being optimized...
# ** Warning: ahb_slave.v(162): (vopt-2182) 'burst_counter_reg' might be read before written in always_comb or always @* block.
# ** Note: (vsim-12126) Error and warning message counts have been restored: Errors=0, Warnings=1.
# Loading sv_std.std
# Loading work.ahbslave_tb(fast)
# Loading work.ahb_slave(fast)
add wave -position insertpoint sim:/ahbslave_tb/*
add wave -position insertpoint  \
sim:/ahbslave_tb/s0/burst_counter
add wave -position insertpoint  \
sim:/ahbslave_tb/s0/burst_counter_reg
add wave -position insertpoint  \
sim:/ahbslave_tb/s0/next_state
add wave -position insertpoint  \
sim:/ahbslave_tb/s0/state
run -all
# time: 25 xxxxxxxxxxxxxxxxxxxxxxxxxx
# time: 40 xxxxxxxxxxxxxxxxxxxxxxxxxx
# time: 60 xxxxxxxxxxxxxxxxxxxxxxxxxx
# time: 65 xxxxxxxxxxxxxxxxxxxxxxxxxx
# time: 65 aaaaaaaaaaaaaaaaaaaaa burst_counter = 0, burst_counter_reg = 0
# time :70 HRDATA = x
# time: 75 xxxxxxxxxxxxxxxxxxxxxxxxxx
# time :80 HRDATA = x
# time: 80 xxxxxxxxxxxxxxxxxxxxxxxxxx
# time: 85 xxxxxxxxxxxxxxxxxxxxxxxxxx
# time :90 HRDATA = 5
# time :100 HRDATA = 5
# time: 100 xxxxxxxxxxxxxxxxxxxxxxxxxx
# time: 105 xxxxxxxxxxxxxxxxxxxxxxxxxx
# time :110 HRDATA = 5
# time :120 HRDATA = 5
# time: 120 xxxxxxxxxxxxxxxxxxxxxxxxxx
# time: 125 xxxxxxxxxxxxxxxxxxxxxxxxxx
# time: 125 aaaaaaaaaaaaaaaaaaaaa burst_counter = 1, burst_counter_reg = 1
# time: 125 jjjjjjjjjjjjjjjjjjjjj burst_counter = 1, burst_counter_reg = 2
# time: 135 xxxxxxxxxxxxxxxxxxxxxxxxxx
# time: 135 aaaaaaaaaaaaaaaaaaaaa burst_counter = 2, burst_counter_reg = 2
# time: 135 jjjjjjjjjjjjjjjjjjjjj burst_counter = 2, burst_counter_reg = 3
# time: 145 xxxxxxxxxxxxxxxxxxxxxxxxxx
# time: 145 aaaaaaaaaaaaaaaaaaaaa burst_counter = 3, burst_counter_reg = 3
# time: 145 jjjjjjjjjjjjjjjjjjjjj burst_counter = 3, burst_counter_reg = 4
# time: 155 xxxxxxxxxxxxxxxxxxxxxxxxxx
# time: 155 aaaaaaaaaaaaaaaaaaaaa burst_counter = 4, burst_counter_reg = 4
# time: 155 jjjjjjjjjjjjjjjjjjjjj burst_counter = 4, burst_counter_reg = 5
# time: 165 xxxxxxxxxxxxxxxxxxxxxxxxxx
# time: 165 aaaaaaaaaaaaaaaaaaaaa burst_counter = 5, burst_counter_reg = 5
# time: 165 jjjjjjjjjjjjjjjjjjjjj burst_counter = 5, burst_counter_reg = 6
# time: 175 xxxxxxxxxxxxxxxxxxxxxxxxxx
# time: 175 aaaaaaaaaaaaaaaaaaaaa burst_counter = 6, burst_counter_reg = 6
# time: 175 jjjjjjjjjjjjjjjjjjjjj burst_counter = 6, burst_counter_reg = 7
# time: 185 xxxxxxxxxxxxxxxxxxxxxxxxxx
# time: 185 aaaaaaaaaaaaaaaaaaaaa burst_counter = 7, burst_counter_reg = 7
# time: 185 jjjjjjjjjjjjjjjjjjjjj burst_counter = 7, burst_counter_reg = 8
# time: 195 xxxxxxxxxxxxxxxxxxxxxxxxxx
# time: 195 aaaaaaaaaaaaaaaaaaaaa burst_counter = 8, burst_counter_reg = 8
# time: 195 jjjjjjjjjjjjjjjjjjjjj burst_counter = 8, burst_counter_reg = 9
# time: 205 xxxxxxxxxxxxxxxxxxxxxxxxxx
# time: 205 aaaaaaaaaaaaaaaaaaaaa burst_counter = 9, burst_counter_reg = 9
# time: 205 jjjjjjjjjjjjjjjjjjjjj burst_counter = 9, burst_counter_reg = 10
# time: 215 xxxxxxxxxxxxxxxxxxxxxxxxxx
# time: 215 aaaaaaaaaaaaaaaaaaaaa burst_counter = 10, burst_counter_reg = 10
# time: 215 jjjjjjjjjjjjjjjjjjjjj burst_counter = 10, burst_counter_reg = 11
# time: 225 xxxxxxxxxxxxxxxxxxxxxxxxxx
# time: 225 aaaaaaaaaaaaaaaaaaaaa burst_counter = 11, burst_counter_reg = 11
# time: 225 jjjjjjjjjjjjjjjjjjjjj burst_counter = 11, burst_counter_reg = 12
# time: 235 xxxxxxxxxxxxxxxxxxxxxxxxxx
# time: 235 aaaaaaaaaaaaaaaaaaaaa burst_counter = 12, burst_counter_reg = 12
# time: 235 jjjjjjjjjjjjjjjjjjjjj burst_counter = 12, burst_counter_reg = 13
# time: 245 xxxxxxxxxxxxxxxxxxxxxxxxxx
# time: 245 aaaaaaaaaaaaaaaaaaaaa burst_counter = 13, burst_counter_reg = 13
# time: 245 jjjjjjjjjjjjjjjjjjjjj burst_counter = 13, burst_counter_reg = 14
# ** Note: $stop    : ahbs_tb.sv(88)
#    Time: 250 ns  Iteration: 0  Instance: /ahbslave_tb
# Break in Module ahbslave_tb at ahbs_tb.sv line 88
vlog ahb_slave.v
# QuestaSim-64 vlog 2021.1 Compiler 2021.01 Jan 19 2021
# Start time: 17:13:42 on Sep 22,2024
# vlog -reportprogress 300 ahb_slave.v 
# -- Compiling module ahb_slave
# ** Warning: ahb_slave.v(164): (vlog-2182) 'burst_counter_reg' might be read before written in always_comb or always @* block.
# 
# Top level modules:
# 	ahb_slave
# End time: 17:13:42 on Sep 22,2024, Elapsed time: 0:00:00
# Errors: 0, Warnings: 1
restart
# ** Note: (vsim-12125) Error and warning message counts have been reset to '0' because of 'restart'.
# ** Note: (vsim-3813) Design is being optimized due to module recompilation...
# ** Warning: ahb_slave.v(164): (vopt-2182) 'burst_counter_reg' might be read before written in always_comb or always @* block.
# ** Note: (vsim-12126) Error and warning message counts have been restored: Errors=0, Warnings=1.
# Loading sv_std.std
# Loading work.ahbslave_tb(fast)
# Loading work.ahb_slave(fast)
run -all
# time: 25 xxxxxxxxxxxxxxxxxxxxxxxxxx
# time: 40 xxxxxxxxxxxxxxxxxxxxxxxxxx
# time: 45 xxxxxxxxxxxxxxxxxxxxxxxxxx
# time: 60 xxxxxxxxxxxxxxxxxxxxxxxxxx
# time: 65 xxxxxxxxxxxxxxxxxxxxxxxxxx
# time: 65 aaaaaaaaaaaaaaaaaaaaa burst_counter = 0, burst_counter_reg = 0
# time :70 HRDATA = x
# time: 75 xxxxxxxxxxxxxxxxxxxxxxxxxx
# time :80 HRDATA = x
# time: 80 xxxxxxxxxxxxxxxxxxxxxxxxxx
# time: 85 xxxxxxxxxxxxxxxxxxxxxxxxxx
# time :90 HRDATA = 5
# time :100 HRDATA = 5
# time: 100 xxxxxxxxxxxxxxxxxxxxxxxxxx
# time: 105 xxxxxxxxxxxxxxxxxxxxxxxxxx
# time :110 HRDATA = 5
# time :120 HRDATA = 5
# time: 120 xxxxxxxxxxxxxxxxxxxxxxxxxx
# time: 125 xxxxxxxxxxxxxxxxxxxxxxxxxx
# time: 125 aaaaaaaaaaaaaaaaaaaaa burst_counter = 0, burst_counter_reg = 0
# time: 125 jjjjjjjjjjjjjjjjjjjjj burst_counter = 0, burst_counter_reg = 1
# time: 135 xxxxxxxxxxxxxxxxxxxxxxxxxx
# time: 135 aaaaaaaaaaaaaaaaaaaaa burst_counter = 1, burst_counter_reg = 1
# time: 135 jjjjjjjjjjjjjjjjjjjjj burst_counter = 1, burst_counter_reg = 2
# time: 145 xxxxxxxxxxxxxxxxxxxxxxxxxx
# time: 145 aaaaaaaaaaaaaaaaaaaaa burst_counter = 2, burst_counter_reg = 2
# time: 145 jjjjjjjjjjjjjjjjjjjjj burst_counter = 2, burst_counter_reg = 3
# time: 155 xxxxxxxxxxxxxxxxxxxxxxxxxx
# time: 155 aaaaaaaaaaaaaaaaaaaaa burst_counter = 3, burst_counter_reg = 3
# time: 155 jjjjjjjjjjjjjjjjjjjjj burst_counter = 3, burst_counter_reg = 4
# time: 165 xxxxxxxxxxxxxxxxxxxxxxxxxx
# time: 165 aaaaaaaaaaaaaaaaaaaaa burst_counter = 4, burst_counter_reg = 4
# time: 165 jjjjjjjjjjjjjjjjjjjjj burst_counter = 4, burst_counter_reg = 5
# time: 175 xxxxxxxxxxxxxxxxxxxxxxxxxx
# time: 175 aaaaaaaaaaaaaaaaaaaaa burst_counter = 5, burst_counter_reg = 5
# time: 175 jjjjjjjjjjjjjjjjjjjjj burst_counter = 5, burst_counter_reg = 6
# time: 185 xxxxxxxxxxxxxxxxxxxxxxxxxx
# time: 185 aaaaaaaaaaaaaaaaaaaaa burst_counter = 6, burst_counter_reg = 6
# time: 185 jjjjjjjjjjjjjjjjjjjjj burst_counter = 6, burst_counter_reg = 7
# time: 195 xxxxxxxxxxxxxxxxxxxxxxxxxx
# time: 195 aaaaaaaaaaaaaaaaaaaaa burst_counter = 7, burst_counter_reg = 7
# time: 195 jjjjjjjjjjjjjjjjjjjjj burst_counter = 7, burst_counter_reg = 8
# time: 205 xxxxxxxxxxxxxxxxxxxxxxxxxx
# time: 205 aaaaaaaaaaaaaaaaaaaaa burst_counter = 8, burst_counter_reg = 8
# time: 205 jjjjjjjjjjjjjjjjjjjjj burst_counter = 8, burst_counter_reg = 9
# time: 215 xxxxxxxxxxxxxxxxxxxxxxxxxx
# time: 215 aaaaaaaaaaaaaaaaaaaaa burst_counter = 9, burst_counter_reg = 9
# time: 215 jjjjjjjjjjjjjjjjjjjjj burst_counter = 9, burst_counter_reg = 10
# time: 225 xxxxxxxxxxxxxxxxxxxxxxxxxx
# time: 225 aaaaaaaaaaaaaaaaaaaaa burst_counter = 10, burst_counter_reg = 10
# time: 225 jjjjjjjjjjjjjjjjjjjjj burst_counter = 10, burst_counter_reg = 11
# time: 235 xxxxxxxxxxxxxxxxxxxxxxxxxx
# time: 235 aaaaaaaaaaaaaaaaaaaaa burst_counter = 11, burst_counter_reg = 11
# time: 235 jjjjjjjjjjjjjjjjjjjjj burst_counter = 11, burst_counter_reg = 12
# time: 245 xxxxxxxxxxxxxxxxxxxxxxxxxx
# time: 245 aaaaaaaaaaaaaaaaaaaaa burst_counter = 12, burst_counter_reg = 12
# time: 245 jjjjjjjjjjjjjjjjjjjjj burst_counter = 12, burst_counter_reg = 13
# ** Note: $stop    : ahbs_tb.sv(88)
#    Time: 250 ns  Iteration: 0  Instance: /ahbslave_tb
# Break in Module ahbslave_tb at ahbs_tb.sv line 88
vlog ahbs_tb.sv
# QuestaSim-64 vlog 2021.1 Compiler 2021.01 Jan 19 2021
# Start time: 05:20:53 on Sep 23,2024
# vlog -reportprogress 300 ahbs_tb.sv 
# -- Compiling module ahbslave_tb
# 
# Top level modules:
# 	ahbslave_tb
# End time: 05:20:53 on Sep 23,2024, Elapsed time: 0:00:00
# Errors: 0, Warnings: 0
restart
# ** Note: (vsim-12125) Error and warning message counts have been reset to '0' because of 'restart'.
# ** Note: (vsim-3813) Design is being optimized due to module recompilation...
# Loading sv_std.std
# Loading work.ahbslave_tb(fast)
# Loading work.ahb_slave(fast)
run -all
# time: 25 xxxxxxxxxxxxxxxxxxxxxxxxxx
# time: 40 xxxxxxxxxxxxxxxxxxxxxxxxxx
# time: 45 xxxxxxxxxxxxxxxxxxxxxxxxxx
# time: 60 xxxxxxxxxxxxxxxxxxxxxxxxxx
# time: 65 xxxxxxxxxxxxxxxxxxxxxxxxxx
# time: 65 aaaaaaaaaaaaaaaaaaaaa burst_counter = 0, burst_counter_reg = 0
# time :70 HRDATA = x
# time: 75 xxxxxxxxxxxxxxxxxxxxxxxxxx
# time :80 HRDATA = x
# time: 80 xxxxxxxxxxxxxxxxxxxxxxxxxx
# time: 85 xxxxxxxxxxxxxxxxxxxxxxxxxx
# time :90 HRDATA = 5
# time :100 HRDATA = 5
# time: 100 xxxxxxxxxxxxxxxxxxxxxxxxxx
# time: 105 xxxxxxxxxxxxxxxxxxxxxxxxxx
# time :110 HRDATA = 5
# time :120 HRDATA = 5
# time: 120 xxxxxxxxxxxxxxxxxxxxxxxxxx
# time: 125 xxxxxxxxxxxxxxxxxxxxxxxxxx
# time: 125 aaaaaaaaaaaaaaaaaaaaa burst_counter = 0, burst_counter_reg = 0
# time: 125 jjjjjjjjjjjjjjjjjjjjj burst_counter = 0, burst_counter_reg = 1
# time: 135 xxxxxxxxxxxxxxxxxxxxxxxxxx
# time: 135 aaaaaaaaaaaaaaaaaaaaa burst_counter = 1, burst_counter_reg = 1
# time: 135 jjjjjjjjjjjjjjjjjjjjj burst_counter = 1, burst_counter_reg = 2
# time: 145 xxxxxxxxxxxxxxxxxxxxxxxxxx
# time: 145 aaaaaaaaaaaaaaaaaaaaa burst_counter = 2, burst_counter_reg = 2
# time: 145 jjjjjjjjjjjjjjjjjjjjj burst_counter = 2, burst_counter_reg = 3
# time: 155 xxxxxxxxxxxxxxxxxxxxxxxxxx
# time: 155 aaaaaaaaaaaaaaaaaaaaa burst_counter = 3, burst_counter_reg = 3
# time: 155 jjjjjjjjjjjjjjjjjjjjj burst_counter = 3, burst_counter_reg = 4
# time: 165 xxxxxxxxxxxxxxxxxxxxxxxxxx
# time: 170 xxxxxxxxxxxxxxxxxxxxxxxxxx
# time: 175 xxxxxxxxxxxxxxxxxxxxxxxxxx
# ** Note: $stop    : ahbs_tb.sv(90)
#    Time: 270 ns  Iteration: 0  Instance: /ahbslave_tb
# Break in Module ahbslave_tb at ahbs_tb.sv line 90
vlog ahbs_tb.sv
# QuestaSim-64 vlog 2021.1 Compiler 2021.01 Jan 19 2021
# Start time: 05:24:29 on Sep 23,2024
# vlog -reportprogress 300 ahbs_tb.sv 
# -- Compiling module ahbslave_tb
# 
# Top level modules:
# 	ahbslave_tb
# End time: 05:24:29 on Sep 23,2024, Elapsed time: 0:00:00
# Errors: 0, Warnings: 0
restart
# ** Note: (vsim-3813) Design is being optimized due to module recompilation...
# Loading sv_std.std
# Loading work.ahbslave_tb(fast)
# Loading work.ahb_slave(fast)
run -all
# time: 25 xxxxxxxxxxxxxxxxxxxxxxxxxx
# time: 40 xxxxxxxxxxxxxxxxxxxxxxxxxx
# time: 45 xxxxxxxxxxxxxxxxxxxxxxxxxx
# time: 60 xxxxxxxxxxxxxxxxxxxxxxxxxx
# time: 65 xxxxxxxxxxxxxxxxxxxxxxxxxx
# time: 65 aaaaaaaaaaaaaaaaaaaaa burst_counter = 0, burst_counter_reg = 0
# time :70 HRDATA = x
# time: 75 xxxxxxxxxxxxxxxxxxxxxxxxxx
# time :80 HRDATA = x
# time: 80 xxxxxxxxxxxxxxxxxxxxxxxxxx
# time: 85 xxxxxxxxxxxxxxxxxxxxxxxxxx
# time :90 HRDATA = 5
# time :100 HRDATA = 5
# time: 100 xxxxxxxxxxxxxxxxxxxxxxxxxx
# time: 105 xxxxxxxxxxxxxxxxxxxxxxxxxx
# time :110 HRDATA = 5
# time :120 HRDATA = 5
# time: 120 xxxxxxxxxxxxxxxxxxxxxxxxxx
# time: 125 xxxxxxxxxxxxxxxxxxxxxxxxxx
# time: 125 aaaaaaaaaaaaaaaaaaaaa burst_counter = 0, burst_counter_reg = 0
# time: 125 jjjjjjjjjjjjjjjjjjjjj burst_counter = 0, burst_counter_reg = 1
# time: 135 xxxxxxxxxxxxxxxxxxxxxxxxxx
# time: 135 aaaaaaaaaaaaaaaaaaaaa burst_counter = 1, burst_counter_reg = 1
# time: 135 jjjjjjjjjjjjjjjjjjjjj burst_counter = 1, burst_counter_reg = 2
# time: 145 xxxxxxxxxxxxxxxxxxxxxxxxxx
# time: 145 aaaaaaaaaaaaaaaaaaaaa burst_counter = 2, burst_counter_reg = 2
# time: 145 jjjjjjjjjjjjjjjjjjjjj burst_counter = 2, burst_counter_reg = 3
# time: 155 xxxxxxxxxxxxxxxxxxxxxxxxxx
# time: 155 aaaaaaaaaaaaaaaaaaaaa burst_counter = 3, burst_counter_reg = 3
# time: 155 jjjjjjjjjjjjjjjjjjjjj burst_counter = 3, burst_counter_reg = 4
# time: 165 xxxxxxxxxxxxxxxxxxxxxxxxxx
# time: 170 xxxxxxxxxxxxxxxxxxxxxxxxxx
# time: 175 xxxxxxxxxxxxxxxxxxxxxxxxxx
# time: 175 aaaaaaaaaaaaaaaaaaaaa burst_counter = 4, burst_counter_reg = 4
# time: 175 jjjjjjjjjjjjjjjjjjjjj burst_counter = 4, burst_counter_reg = 3
# time: 185 xxxxxxxxxxxxxxxxxxxxxxxxxx
# time: 185 aaaaaaaaaaaaaaaaaaaaa burst_counter = 3, burst_counter_reg = 3
# time: 185 jjjjjjjjjjjjjjjjjjjjj burst_counter = 3, burst_counter_reg = 2
# time: 195 xxxxxxxxxxxxxxxxxxxxxxxxxx
# time: 195 aaaaaaaaaaaaaaaaaaaaa burst_counter = 2, burst_counter_reg = 2
# time: 195 jjjjjjjjjjjjjjjjjjjjj burst_counter = 2, burst_counter_reg = 1
# time: 205 xxxxxxxxxxxxxxxxxxxxxxxxxx
# time: 205 aaaaaaaaaaaaaaaaaaaaa burst_counter = 1, burst_counter_reg = 1
# time: 205 jjjjjjjjjjjjjjjjjjjjj burst_counter = 1, burst_counter_reg = 0
# time: 215 xxxxxxxxxxxxxxxxxxxxxxxxxx
# time: 215 aaaaaaaaaaaaaaaaaaaaa burst_counter = 0, burst_counter_reg = 0
# time: 215 jjjjjjjjjjjjjjjjjjjjj burst_counter = 0, burst_counter_reg = 1
# time: 225 xxxxxxxxxxxxxxxxxxxxxxxxxx
# time: 225 aaaaaaaaaaaaaaaaaaaaa burst_counter = 1, burst_counter_reg = 1
# time: 225 jjjjjjjjjjjjjjjjjjjjj burst_counter = 1, burst_counter_reg = 0
# time: 235 xxxxxxxxxxxxxxxxxxxxxxxxxx
# time: 235 aaaaaaaaaaaaaaaaaaaaa burst_counter = 0, burst_counter_reg = 0
# time: 235 jjjjjjjjjjjjjjjjjjjjj burst_counter = 0, burst_counter_reg = 1
# time: 245 xxxxxxxxxxxxxxxxxxxxxxxxxx
# time: 245 aaaaaaaaaaaaaaaaaaaaa burst_counter = 1, burst_counter_reg = 1
# time: 245 jjjjjjjjjjjjjjjjjjjjj burst_counter = 1, burst_counter_reg = 0
# time: 255 xxxxxxxxxxxxxxxxxxxxxxxxxx
# time: 255 aaaaaaaaaaaaaaaaaaaaa burst_counter = 0, burst_counter_reg = 0
# time: 255 jjjjjjjjjjjjjjjjjjjjj burst_counter = 0, burst_counter_reg = 1
# time: 265 xxxxxxxxxxxxxxxxxxxxxxxxxx
# time: 265 aaaaaaaaaaaaaaaaaaaaa burst_counter = 1, burst_counter_reg = 1
# time: 265 jjjjjjjjjjjjjjjjjjjjj burst_counter = 1, burst_counter_reg = 0
# time: 275 xxxxxxxxxxxxxxxxxxxxxxxxxx
# time: 275 aaaaaaaaaaaaaaaaaaaaa burst_counter = 0, burst_counter_reg = 0
# time: 275 jjjjjjjjjjjjjjjjjjjjj burst_counter = 0, burst_counter_reg = 1
# ** Note: $stop    : ahbs_tb.sv(93)
#    Time: 280 ns  Iteration: 0  Instance: /ahbslave_tb
# Break in Module ahbslave_tb at ahbs_tb.sv line 93
add wave -position insertpoint  \
sim:/ahbslave_tb/s0/wrap_flag
restart
# ** Note: (vsim-8009) Loading existing optimized design _opt
# Loading work.ahbslave_tb(fast)
# Loading work.ahb_slave(fast)
run -all
# time: 25 xxxxxxxxxxxxxxxxxxxxxxxxxx
# time: 40 xxxxxxxxxxxxxxxxxxxxxxxxxx
# time: 45 xxxxxxxxxxxxxxxxxxxxxxxxxx
# time: 60 xxxxxxxxxxxxxxxxxxxxxxxxxx
# time: 65 xxxxxxxxxxxxxxxxxxxxxxxxxx
# time: 65 aaaaaaaaaaaaaaaaaaaaa burst_counter = 0, burst_counter_reg = 0
# time :70 HRDATA = x
# time: 75 xxxxxxxxxxxxxxxxxxxxxxxxxx
# time :80 HRDATA = x
# time: 80 xxxxxxxxxxxxxxxxxxxxxxxxxx
# time: 85 xxxxxxxxxxxxxxxxxxxxxxxxxx
# time :90 HRDATA = 5
# time :100 HRDATA = 5
# time: 100 xxxxxxxxxxxxxxxxxxxxxxxxxx
# time: 105 xxxxxxxxxxxxxxxxxxxxxxxxxx
# time :110 HRDATA = 5
# time :120 HRDATA = 5
# time: 120 xxxxxxxxxxxxxxxxxxxxxxxxxx
# time: 125 xxxxxxxxxxxxxxxxxxxxxxxxxx
# time: 125 aaaaaaaaaaaaaaaaaaaaa burst_counter = 0, burst_counter_reg = 0
# time: 125 jjjjjjjjjjjjjjjjjjjjj burst_counter = 0, burst_counter_reg = 1
# time: 135 xxxxxxxxxxxxxxxxxxxxxxxxxx
# time: 135 aaaaaaaaaaaaaaaaaaaaa burst_counter = 1, burst_counter_reg = 1
# time: 135 jjjjjjjjjjjjjjjjjjjjj burst_counter = 1, burst_counter_reg = 2
# time: 145 xxxxxxxxxxxxxxxxxxxxxxxxxx
# time: 145 aaaaaaaaaaaaaaaaaaaaa burst_counter = 2, burst_counter_reg = 2
# time: 145 jjjjjjjjjjjjjjjjjjjjj burst_counter = 2, burst_counter_reg = 3
# time: 155 xxxxxxxxxxxxxxxxxxxxxxxxxx
# time: 155 aaaaaaaaaaaaaaaaaaaaa burst_counter = 3, burst_counter_reg = 3
# time: 155 jjjjjjjjjjjjjjjjjjjjj burst_counter = 3, burst_counter_reg = 4
# time: 165 xxxxxxxxxxxxxxxxxxxxxxxxxx
# time: 170 xxxxxxxxxxxxxxxxxxxxxxxxxx
# time: 175 xxxxxxxxxxxxxxxxxxxxxxxxxx
# time: 175 aaaaaaaaaaaaaaaaaaaaa burst_counter = 4, burst_counter_reg = 4
# time: 175 jjjjjjjjjjjjjjjjjjjjj burst_counter = 4, burst_counter_reg = 3
# time: 185 xxxxxxxxxxxxxxxxxxxxxxxxxx
# time: 185 aaaaaaaaaaaaaaaaaaaaa burst_counter = 3, burst_counter_reg = 3
# time: 185 jjjjjjjjjjjjjjjjjjjjj burst_counter = 3, burst_counter_reg = 2
# time: 195 xxxxxxxxxxxxxxxxxxxxxxxxxx
# time: 195 aaaaaaaaaaaaaaaaaaaaa burst_counter = 2, burst_counter_reg = 2
# time: 195 jjjjjjjjjjjjjjjjjjjjj burst_counter = 2, burst_counter_reg = 1
# time: 205 xxxxxxxxxxxxxxxxxxxxxxxxxx
# time: 205 aaaaaaaaaaaaaaaaaaaaa burst_counter = 1, burst_counter_reg = 1
# time: 205 jjjjjjjjjjjjjjjjjjjjj burst_counter = 1, burst_counter_reg = 0
# time: 215 xxxxxxxxxxxxxxxxxxxxxxxxxx
# time: 215 aaaaaaaaaaaaaaaaaaaaa burst_counter = 0, burst_counter_reg = 0
# time: 215 jjjjjjjjjjjjjjjjjjjjj burst_counter = 0, burst_counter_reg = 1
# time: 225 xxxxxxxxxxxxxxxxxxxxxxxxxx
# time: 225 aaaaaaaaaaaaaaaaaaaaa burst_counter = 1, burst_counter_reg = 1
# time: 225 jjjjjjjjjjjjjjjjjjjjj burst_counter = 1, burst_counter_reg = 0
# time: 235 xxxxxxxxxxxxxxxxxxxxxxxxxx
# time: 235 aaaaaaaaaaaaaaaaaaaaa burst_counter = 0, burst_counter_reg = 0
# time: 235 jjjjjjjjjjjjjjjjjjjjj burst_counter = 0, burst_counter_reg = 1
# time: 245 xxxxxxxxxxxxxxxxxxxxxxxxxx
# time: 245 aaaaaaaaaaaaaaaaaaaaa burst_counter = 1, burst_counter_reg = 1
# time: 245 jjjjjjjjjjjjjjjjjjjjj burst_counter = 1, burst_counter_reg = 0
# time: 255 xxxxxxxxxxxxxxxxxxxxxxxxxx
# time: 255 aaaaaaaaaaaaaaaaaaaaa burst_counter = 0, burst_counter_reg = 0
# time: 255 jjjjjjjjjjjjjjjjjjjjj burst_counter = 0, burst_counter_reg = 1
# time: 265 xxxxxxxxxxxxxxxxxxxxxxxxxx
# time: 265 aaaaaaaaaaaaaaaaaaaaa burst_counter = 1, burst_counter_reg = 1
# time: 265 jjjjjjjjjjjjjjjjjjjjj burst_counter = 1, burst_counter_reg = 0
# time: 275 xxxxxxxxxxxxxxxxxxxxxxxxxx
# time: 275 aaaaaaaaaaaaaaaaaaaaa burst_counter = 0, burst_counter_reg = 0
# time: 275 jjjjjjjjjjjjjjjjjjjjj burst_counter = 0, burst_counter_reg = 1
# ** Note: $stop    : ahbs_tb.sv(93)
#    Time: 280 ns  Iteration: 0  Instance: /ahbslave_tb
# Break in Module ahbslave_tb at ahbs_tb.sv line 93
vlog ahbs_tb.sv
# QuestaSim-64 vlog 2021.1 Compiler 2021.01 Jan 19 2021
# Start time: 05:27:58 on Sep 23,2024
# vlog -reportprogress 300 ahbs_tb.sv 
# -- Compiling module ahbslave_tb
# 
# Top level modules:
# 	ahbslave_tb
# End time: 05:27:59 on Sep 23,2024, Elapsed time: 0:00:01
# Errors: 0, Warnings: 0
restart
# ** Note: (vsim-8009) Loading existing optimized design _opt
# Loading work.ahbslave_tb(fast)
# Loading work.ahb_slave(fast)
run -all
# time: 25 xxxxxxxxxxxxxxxxxxxxxxxxxx
# time: 40 xxxxxxxxxxxxxxxxxxxxxxxxxx
# time: 45 xxxxxxxxxxxxxxxxxxxxxxxxxx
# time: 60 xxxxxxxxxxxxxxxxxxxxxxxxxx
# time: 65 xxxxxxxxxxxxxxxxxxxxxxxxxx
# time: 65 aaaaaaaaaaaaaaaaaaaaa burst_counter = 0, burst_counter_reg = 0
# time :70 HRDATA = x
# time: 75 xxxxxxxxxxxxxxxxxxxxxxxxxx
# time :80 HRDATA = x
# time: 80 xxxxxxxxxxxxxxxxxxxxxxxxxx
# time: 85 xxxxxxxxxxxxxxxxxxxxxxxxxx
# time :90 HRDATA = 5
# time :100 HRDATA = 5
# time: 100 xxxxxxxxxxxxxxxxxxxxxxxxxx
# time: 105 xxxxxxxxxxxxxxxxxxxxxxxxxx
# time :110 HRDATA = 5
# time :120 HRDATA = 5
# time: 120 xxxxxxxxxxxxxxxxxxxxxxxxxx
# time: 125 xxxxxxxxxxxxxxxxxxxxxxxxxx
# time: 125 aaaaaaaaaaaaaaaaaaaaa burst_counter = 0, burst_counter_reg = 0
# time: 125 jjjjjjjjjjjjjjjjjjjjj burst_counter = 0, burst_counter_reg = 1
# time: 135 xxxxxxxxxxxxxxxxxxxxxxxxxx
# time: 135 aaaaaaaaaaaaaaaaaaaaa burst_counter = 1, burst_counter_reg = 1
# time: 135 jjjjjjjjjjjjjjjjjjjjj burst_counter = 1, burst_counter_reg = 2
# time: 145 xxxxxxxxxxxxxxxxxxxxxxxxxx
# time: 145 aaaaaaaaaaaaaaaaaaaaa burst_counter = 2, burst_counter_reg = 2
# time: 145 jjjjjjjjjjjjjjjjjjjjj burst_counter = 2, burst_counter_reg = 3
# time: 155 xxxxxxxxxxxxxxxxxxxxxxxxxx
# time: 155 aaaaaaaaaaaaaaaaaaaaa burst_counter = 3, burst_counter_reg = 3
# time: 155 jjjjjjjjjjjjjjjjjjjjj burst_counter = 3, burst_counter_reg = 4
# time: 165 xxxxxxxxxxxxxxxxxxxxxxxxxx
# time: 170 xxxxxxxxxxxxxxxxxxxxxxxxxx
